<svg width="448" height="244" viewBox="0 0 448 244" fill="none" xmlns="http://www.w3.org/2000/svg">
<path d="M4.46502 232.475L11.535 239.546C16.221 244.232 23.819 244.232 28.506 239.546L224 44.053L419.494 239.546C424.18 244.232 431.778 244.232 436.465 239.546L443.535 232.475C448.221 227.789 448.221 220.191 443.535 215.505L232.485 4.45401C227.799 -0.231986 220.201 -0.231986 215.514 4.45401L4.46502 215.505C-0.221982 220.191 -0.221982 227.789 4.46502 232.475Z" fill="white"/>
</svg>
